using System.Collections;
using System.Collections.Generic;
using UnityEngine;

public class Task7 : MonoBehaviour
{
int i;
int s;

void Start()
{
for (int i = 40; i <= 50; i++)
{
s = i;

Debug.Log(i);

while (s != 1)
{
if (s % 2 == 0)
{
s = s / 2;
}
else
{
s = ((s * 3) + 1) / 2;
}
}
}
Debug.Log("гипотеза верна");
}


void Update()
{

}
}